{"failedCount":0,"prefixedPath":"src\/test\/java\/users\/get\/user-get.feature","packageQualifiedName":"src.test.java.users.get.user-get","loopIndex":-1,"relativePath":"src\/test\/java\/users\/get\/user-get.feature","scenarioResults":[{"sectionIndex":1,"stepResults":[{"result":{"nanos":162205700,"millis":162.2057,"status":"passed"},"step":{"comments":["# variable para llamar el archivo tipo Json que es la respuesta que espera validar el escenario"],"line":12,"prefix":"*","index":0,"text":"def jsonResponse = read('..\/json\/List_of_users.json')"}},{"result":{"nanos":2021700,"millis":2.0217,"status":"passed"},"step":{"line":13,"prefix":"Given","index":1,"text":"url \"https:\/\/reqres.in\/api\/users?page=1\""}},{"result":{"nanos":549443300,"millis":549.4433,"status":"passed"},"step":{"line":14,"prefix":"When","index":2,"text":"method get"},"stepLog":"09:03:32.796 request:\n1 > GET https:\/\/reqres.in\/api\/users?page=1\n1 > Host: reqres.in\n1 > Connection: Keep-Alive\n1 > User-Agent: Apache-HttpClient\/4.5.13 (Java\/17.0.7)\n1 > Accept-Encoding: gzip,deflate\n\n\n09:03:33.108 response time in milliseconds: 310\n1 < 200\n1 < Date: Tue, 11 Jul 2023 14:03:32 GMT\n1 < Content-Type: application\/json; charset=utf-8\n1 < Transfer-Encoding: chunked\n1 < Connection: keep-alive\n1 < X-Powered-By: Express\n1 < Access-Control-Allow-Origin: *\n1 < Etag: W\/\"3e4-2RLXvr5wTg9YQ6aH95CkYoFNuO8\"\n1 < Via: 1.1 vegur\n1 < Cache-Control: max-age=14400\n1 < CF-Cache-Status: HIT\n1 < Age: 6319\n1 < Report-To: {\"endpoints\":[{\"url\":\"https:\\\/\\\/a.nel.cloudflare.com\\\/report\\\/v3?s=kR4KKe3jSy3uX%2FQtjm4PwYJll2X63mCJi4dyHrtW64mgqRtvgNaVyrS%2FBpfBZZ7mCBXeb%2Fp1VYHC50Hjz3CT6MtmclNNw3TNfJo88JWfjgVFRVstTCe8oL0tJQ%3D%3D\"}],\"group\":\"cf-nel\",\"max_age\":604800}\n1 < NEL: {\"success_fraction\":0,\"report_to\":\"cf-nel\",\"max_age\":604800}\n1 < Vary: Accept-Encoding\n1 < Server: cloudflare\n1 < CF-RAY: 7e51972849d58de5-MIA\n{\"page\":1,\"per_page\":6,\"total\":12,\"total_pages\":2,\"data\":[{\"id\":1,\"email\":\"george.bluth@reqres.in\",\"first_name\":\"George\",\"last_name\":\"Bluth\",\"avatar\":\"https:\/\/reqres.in\/img\/faces\/1-image.jpg\"},{\"id\":2,\"email\":\"janet.weaver@reqres.in\",\"first_name\":\"Janet\",\"last_name\":\"Weaver\",\"avatar\":\"https:\/\/reqres.in\/img\/faces\/2-image.jpg\"},{\"id\":3,\"email\":\"emma.wong@reqres.in\",\"first_name\":\"Emma\",\"last_name\":\"Wong\",\"avatar\":\"https:\/\/reqres.in\/img\/faces\/3-image.jpg\"},{\"id\":4,\"email\":\"eve.holt@reqres.in\",\"first_name\":\"Eve\",\"last_name\":\"Holt\",\"avatar\":\"https:\/\/reqres.in\/img\/faces\/4-image.jpg\"},{\"id\":5,\"email\":\"charles.morris@reqres.in\",\"first_name\":\"Charles\",\"last_name\":\"Morris\",\"avatar\":\"https:\/\/reqres.in\/img\/faces\/5-image.jpg\"},{\"id\":6,\"email\":\"tracey.ramos@reqres.in\",\"first_name\":\"Tracey\",\"last_name\":\"Ramos\",\"avatar\":\"https:\/\/reqres.in\/img\/faces\/6-image.jpg\"}],\"support\":{\"url\":\"https:\/\/reqres.in\/#support-heading\",\"text\":\"To keep ReqRes free, contributions towards server costs are appreciated!\"}}\n\n"},{"result":{"nanos":33900,"millis":0.0339,"status":"passed"},"step":{"line":15,"prefix":"Then","index":3,"text":"status 200"}},{"result":{"nanos":16185800,"millis":16.1858,"status":"passed"},"step":{"line":16,"prefix":"And","index":4,"text":"match $ == {\"page\":1,\"per_page\":6,\"total\":12,\"total_pages\":2,\"data\":[{\"id\":1,\"email\":\"george.bluth@reqres.in\",\"first_name\":\"George\",\"last_name\":\"Bluth\",\"avatar\":\"https:\/\/reqres.in\/img\/faces\/1-image.jpg\"},{\"id\":2,\"email\":\"janet.weaver@reqres.in\",\"first_name\":\"Janet\",\"last_name\":\"Weaver\",\"avatar\":\"https:\/\/reqres.in\/img\/faces\/2-image.jpg\"},{\"id\":3,\"email\":\"emma.wong@reqres.in\",\"first_name\":\"Emma\",\"last_name\":\"Wong\",\"avatar\":\"https:\/\/reqres.in\/img\/faces\/3-image.jpg\"},{\"id\":4,\"email\":\"eve.holt@reqres.in\",\"first_name\":\"Eve\",\"last_name\":\"Holt\",\"avatar\":\"https:\/\/reqres.in\/img\/faces\/4-image.jpg\"},{\"id\":5,\"email\":\"charles.morris@reqres.in\",\"first_name\":\"Charles\",\"last_name\":\"Morris\",\"avatar\":\"https:\/\/reqres.in\/img\/faces\/5-image.jpg\"},{\"id\":6,\"email\":\"tracey.ramos@reqres.in\",\"first_name\":\"Tracey\",\"last_name\":\"Ramos\",\"avatar\":\"https:\/\/reqres.in\/img\/faces\/6-image.jpg\"}],\"support\":{\"url\":\"https:\/\/reqres.in\/#support-heading\",\"text\":\"To keep ReqRes free, contributions towards server costs are appreciated!\"}}"}},{"result":{"nanos":527700,"millis":0.5277,"status":"passed"},"step":{"line":17,"prefix":"And","index":5,"text":"match $ == jsonResponse"}}],"executorName":"main","line":10,"name":"Get a list of user","description":"","durationMillis":730.4181,"startTime":1689084212385,"failed":false,"refId":"[2:10]","endTime":1689084213129,"exampleIndex":-1}],"callDepth":0,"name":"Get user on reqres","description":"","resultDate":"2023-07-11 09:03:33 a. m.","durationMillis":730.4181,"passedCount":1}